{
		"globalDependencies": {
				"core-js": "registry:dt/core-js#0.0.0+20160317120654",
				"es6-shim": "github:DefinitelyTyped/DefinitelyTyped/es6-shim/es6-shim.d.ts#7de6c3dd94feaeb21f20054b9f30d5dabc5efabd",
				"jasmine": "registry:dt/jasmine#2.2.0+20160505161446",
				"node": "registry:dt/node#4.0.0+20160509154515"
		},
		"dependencies": {
				"lodash": "registry:npm/lodash#4.0.0+20160723033700"
		}
}
